0 0.787109375 0.603515625 0.10546875 0.16015625
0 0.541015625 0.75390625 0.17578125 0.2265625
0 0.380859375 0.400390625 0.16015625 0.16796875
0 0.283203125 0.662109375 0.09765625 0.12890625
0 0.541015625 0.185546875 0.14453125 0.15234375
0 0.748046875 0.40625 0.25390625 0.09375
