0 0.345703125 0.3203125 0.32421875 0.1796875
0 0.2578125 0.5 0.2109375 0.1328125
0 0.564453125 0.578125 0.26953125 0.140625
0 0.40234375 0.71875 0.328125 0.1015625
0 0.77734375 0.5703125 0.125 0.21875
0 0.703125 0.83203125 0.1796875 0.0859375
0 0.3203125 0.09375 0.125 0.140625
