0 0.796875 0.306640625 0.1875 0.27734375
0 0.279296875 0.55078125 0.26953125 0.21875
0 0.615234375 0.638671875 0.30859375 0.12890625
0 0.234375 0.82421875 0.28125 0.1796875
0 0.61328125 0.28125 0.1171875 0.28125
