0 0.666015625 0.314453125 0.22265625 0.17578125
0 0.63671875 0.455078125 0.1328125 0.10546875
0 0.36328125 0.291015625 0.25 0.19921875
0 0.5078125 0.66015625 0.3046875 0.234375
0 0.826171875 0.69921875 0.13671875 0.1328125
0 0.271484375 0.7421875 0.18359375 0.15625
