0 0.44921875 0.220703125 0.171875 0.13671875
0 0.59765625 0.470703125 0.1875 0.23828125
0 0.79296875 0.5546875 0.1796875 0.1484375
0 0.26953125 0.634765625 0.2265625 0.25390625
0 0.662109375 0.853515625 0.23828125 0.12890625
0 0.21875 0.2734375 0.109375 0.0625
0 0.736328125 0.6953125 0.15234375 0.140625
