0 0.263671875 0.412109375 0.28515625 0.26953125
0 0.443359375 0.13671875 0.34765625 0.1640625
0 0.755859375 0.51953125 0.18359375 0.171875
0 0.541015625 0.67578125 0.23828125 0.125
0 0.703125 0.263671875 0.0859375 0.10546875
