0 0.712890625 0.767578125 0.21484375 0.33203125
0 0.419921875 0.716796875 0.33984375 0.19140625
0 0.244140625 0.451171875 0.20703125 0.15234375
0 0.50390625 0.2890625 0.28125 0.15625
0 0.580078125 0.5234375 0.33984375 0.109375
