0 0.716796875 0.66796875 0.26953125 0.2109375
0 0.408203125 0.365234375 0.44921875 0.10546875
0 0.63671875 0.486328125 0.2578125 0.10546875
0 0.6328125 0.2109375 0.265625 0.1484375
0 0.869140625 0.37109375 0.12890625 0.0703125
