0 0.54296875 0.16796875 0.125 0.125
0 0.451171875 0.68359375 0.13671875 0.1171875
0 0.615234375 0.525390625 0.08203125 0.09765625
0 0.328125 0.341796875 0.1171875 0.08984375
0 0.142578125 0.322265625 0.09765625 0.12109375
